^C:\USERS\KOLYAMBURA\SOURCE\REPOS\PROJECT2\PROJECT2\SOURCE.CPP
D:\PROGRAM FILES\MICROSOFT VISUAL STUDIO\2017\COMMUNITY\VC\TOOLS\MSVC\14.15.26726\BIN\HOSTX86\X86\1049\CLUI.DLL
C:\WINDOWS\GLOBALIZATION\SORTING\SORTDEFAULT.NLS
C:\WINDOWS\SYSTEM32\RSAENH.DLL
C:\WINDOWS\SYSTEM32\TZRES.DLL
D:\PROGRAM FILES\MICROSOFT VISUAL STUDIO\2017\COMMUNITY\VC\TOOLS\MSVC\14.15.26726\INCLUDE\IOSTREAM
D:\PROGRAM FILES\MICROSOFT VISUAL STUDIO\2017\COMMUNITY\VC\TOOLS\MSVC\14.15.26726\INCLUDE\ISTREAM
D:\PROGRAM FILES\MICROSOFT VISUAL STUDIO\2017\COMMUNITY\VC\TOOLS\MSVC\14.15.26726\INCLUDE\OSTREAM
D:\PROGRAM FILES\MICROSOFT VISUAL STUDIO\2017\COMMUNITY\VC\TOOLS\MSVC\14.15.26726\INCLUDE\IOS
D:\PROGRAM FILES\MICROSOFT VISUAL STUDIO\2017\COMMUNITY\VC\TOOLS\MSVC\14.15.26726\INCLUDE\XLOCNUM
D:\PROGRAM FILES\MICROSOFT VISUAL STUDIO\2017\COMMUNITY\VC\TOOLS\MSVC\14.15.26726\INCLUDE\CLIMITS
D:\PROGRAM FILES\MICROSOFT VISUAL STUDIO\2017\COMMUNITY\VC\TOOLS\MSVC\14.15.26726\INCLUDE\YVALS.H
D:\PROGRAM FILES\MICROSOFT VISUAL STUDIO\2017\COMMUNITY\VC\TOOLS\MSVC\14.15.26726\INCLUDE\YVALS_CORE.H
D:\PROGRAM FILES\MICROSOFT VISUAL STUDIO\2017\COMMUNITY\VC\TOOLS\MSVC\14.15.26726\INCLUDE\XKEYCHECK.H
D:\PROGRAM FILES\MICROSOFT VISUAL STUDIO\2017\COMMUNITY\VC\TOOLS\MSVC\14.15.26726\INCLUDE\CRTDEFS.H
D:\PROGRAM FILES\MICROSOFT VISUAL STUDIO\2017\COMMUNITY\VC\TOOLS\MSVC\14.15.26726\INCLUDE\VCRUNTIME.H
D:\PROGRAM FILES\MICROSOFT VISUAL STUDIO\2017\COMMUNITY\VC\TOOLS\MSVC\14.15.26726\INCLUDE\SAL.H
D:\PROGRAM FILES\MICROSOFT VISUAL STUDIO\2017\COMMUNITY\VC\TOOLS\MSVC\14.15.26726\INCLUDE\CONCURRENCYSAL.H
D:\PROGRAM FILES\MICROSOFT VISUAL STUDIO\2017\COMMUNITY\VC\TOOLS\MSVC\14.15.26726\INCLUDE\VADEFS.H
D:\WINDOWS KITS\10\INCLUDE\10.0.17134.0\UCRT\CORECRT.H
D:\WINDOWS KITS\10\INCLUDE\10.0.17134.0\UCRT\CRTDBG.H
D:\PROGRAM FILES\MICROSOFT VISUAL STUDIO\2017\COMMUNITY\VC\TOOLS\MSVC\14.15.26726\INCLUDE\VCRUNTIME_NEW_DEBUG.H
D:\PROGRAM FILES\MICROSOFT VISUAL STUDIO\2017\COMMUNITY\VC\TOOLS\MSVC\14.15.26726\INCLUDE\VCRUNTIME_NEW.H
D:\PROGRAM FILES\MICROSOFT VISUAL STUDIO\2017\COMMUNITY\VC\TOOLS\MSVC\14.15.26726\INCLUDE\USE_ANSI.H
D:\PROGRAM FILES\MICROSOFT VISUAL STUDIO\2017\COMMUNITY\VC\TOOLS\MSVC\14.15.26726\INCLUDE\LIMITS.H
D:\PROGRAM FILES\MICROSOFT VISUAL STUDIO\2017\COMMUNITY\VC\TOOLS\MSVC\14.15.26726\INCLUDE\CMATH
D:\PROGRAM FILES\MICROSOFT VISUAL STUDIO\2017\COMMUNITY\VC\TOOLS\MSVC\14.15.26726\INCLUDE\CSTDLIB
D:\WINDOWS KITS\10\INCLUDE\10.0.17134.0\UCRT\STDLIB.H
D:\WINDOWS KITS\10\INCLUDE\10.0.17134.0\UCRT\CORECRT_MALLOC.H
D:\WINDOWS KITS\10\INCLUDE\10.0.17134.0\UCRT\CORECRT_SEARCH.H
D:\WINDOWS KITS\10\INCLUDE\10.0.17134.0\UCRT\STDDEF.H
D:\WINDOWS KITS\10\INCLUDE\10.0.17134.0\UCRT\CORECRT_WSTDLIB.H
D:\WINDOWS KITS\10\INCLUDE\10.0.17134.0\UCRT\MATH.H
D:\WINDOWS KITS\10\INCLUDE\10.0.17134.0\UCRT\CORECRT_MATH.H
D:\PROGRAM FILES\MICROSOFT VISUAL STUDIO\2017\COMMUNITY\VC\TOOLS\MSVC\14.15.26726\INCLUDE\XTGMATH.H
D:\PROGRAM FILES\MICROSOFT VISUAL STUDIO\2017\COMMUNITY\VC\TOOLS\MSVC\14.15.26726\INCLUDE\XTR1COMMON
D:\PROGRAM FILES\MICROSOFT VISUAL STUDIO\2017\COMMUNITY\VC\TOOLS\MSVC\14.15.26726\INCLUDE\CSTDIO
D:\WINDOWS KITS\10\INCLUDE\10.0.17134.0\UCRT\STDIO.H
D:\WINDOWS KITS\10\INCLUDE\10.0.17134.0\UCRT\CORECRT_WSTDIO.H
D:\WINDOWS KITS\10\INCLUDE\10.0.17134.0\UCRT\CORECRT_STDIO_CONFIG.H
D:\PROGRAM FILES\MICROSOFT VISUAL STUDIO\2017\COMMUNITY\VC\TOOLS\MSVC\14.15.26726\INCLUDE\STREAMBUF
D:\PROGRAM FILES\MICROSOFT VISUAL STUDIO\2017\COMMUNITY\VC\TOOLS\MSVC\14.15.26726\INCLUDE\XIOSBASE
D:\PROGRAM FILES\MICROSOFT VISUAL STUDIO\2017\COMMUNITY\VC\TOOLS\MSVC\14.15.26726\INCLUDE\XLOCALE
D:\PROGRAM FILES\MICROSOFT VISUAL STUDIO\2017\COMMUNITY\VC\TOOLS\MSVC\14.15.26726\INCLUDE\CSTRING
D:\WINDOWS KITS\10\INCLUDE\10.0.17134.0\UCRT\STRING.H
D:\WINDOWS KITS\10\INCLUDE\10.0.17134.0\UCRT\CORECRT_MEMORY.H
D:\WINDOWS KITS\10\INCLUDE\10.0.17134.0\UCRT\CORECRT_MEMCPY_S.H
D:\WINDOWS KITS\10\INCLUDE\10.0.17134.0\UCRT\ERRNO.H
D:\PROGRAM FILES\MICROSOFT VISUAL STUDIO\2017\COMMUNITY\VC\TOOLS\MSVC\14.15.26726\INCLUDE\VCRUNTIME_STRING.H
D:\WINDOWS KITS\10\INCLUDE\10.0.17134.0\UCRT\CORECRT_WSTRING.H
D:\PROGRAM FILES\MICROSOFT VISUAL STUDIO\2017\COMMUNITY\VC\TOOLS\MSVC\14.15.26726\INCLUDE\STDEXCEPT
D:\PROGRAM FILES\MICROSOFT VISUAL STUDIO\2017\COMMUNITY\VC\TOOLS\MSVC\14.15.26726\INCLUDE\EXCEPTION
D:\PROGRAM FILES\MICROSOFT VISUAL STUDIO\2017\COMMUNITY\VC\TOOLS\MSVC\14.15.26726\INCLUDE\TYPE_TRAITS
D:\PROGRAM FILES\MICROSOFT VISUAL STUDIO\2017\COMMUNITY\VC\TOOLS\MSVC\14.15.26726\INCLUDE\XSTDDEF
D:\PROGRAM FILES\MICROSOFT VISUAL STUDIO\2017\COMMUNITY\VC\TOOLS\MSVC\14.15.26726\INCLUDE\CSTDDEF
D:\PROGRAM FILES\MICROSOFT VISUAL STUDIO\2017\COMMUNITY\VC\TOOLS\MSVC\14.15.26726\INCLUDE\INITIALIZER_LIST
D:\WINDOWS KITS\10\INCLUDE\10.0.17134.0\UCRT\MALLOC.H
D:\PROGRAM FILES\MICROSOFT VISUAL STUDIO\2017\COMMUNITY\VC\TOOLS\MSVC\14.15.26726\INCLUDE\VCRUNTIME_EXCEPTION.H
D:\PROGRAM FILES\MICROSOFT VISUAL STUDIO\2017\COMMUNITY\VC\TOOLS\MSVC\14.15.26726\INCLUDE\EH.H
D:\WINDOWS KITS\10\INCLUDE\10.0.17134.0\UCRT\CORECRT_TERMINATE.H
D:\PROGRAM FILES\MICROSOFT VISUAL STUDIO\2017\COMMUNITY\VC\TOOLS\MSVC\14.15.26726\INCLUDE\XSTRING
D:\PROGRAM FILES\MICROSOFT VISUAL STUDIO\2017\COMMUNITY\VC\TOOLS\MSVC\14.15.26726\INCLUDE\XMEMORY0
D:\PROGRAM FILES\MICROSOFT VISUAL STUDIO\2017\COMMUNITY\VC\TOOLS\MSVC\14.15.26726\INCLUDE\CSTDINT
D:\PROGRAM FILES\MICROSOFT VISUAL STUDIO\2017\COMMUNITY\VC\TOOLS\MSVC\14.15.26726\INCLUDE\STDINT.H
D:\PROGRAM FILES\MICROSOFT VISUAL STUDIO\2017\COMMUNITY\VC\TOOLS\MSVC\14.15.26726\INCLUDE\LIMITS
D:\PROGRAM FILES\MICROSOFT VISUAL STUDIO\2017\COMMUNITY\VC\TOOLS\MSVC\14.15.26726\INCLUDE\YMATH.H
D:\PROGRAM FILES\MICROSOFT VISUAL STUDIO\2017\COMMUNITY\VC\TOOLS\MSVC\14.15.26726\INCLUDE\CFLOAT
D:\WINDOWS KITS\10\INCLUDE\10.0.17134.0\UCRT\FLOAT.H
D:\PROGRAM FILES\MICROSOFT VISUAL STUDIO\2017\COMMUNITY\VC\TOOLS\MSVC\14.15.26726\INCLUDE\CWCHAR
D:\WINDOWS KITS\10\INCLUDE\10.0.17134.0\UCRT\WCHAR.H
D:\WINDOWS KITS\10\INCLUDE\10.0.17134.0\UCRT\CORECRT_WCONIO.H
D:\WINDOWS KITS\10\INCLUDE\10.0.17134.0\UCRT\CORECRT_WCTYPE.H
D:\WINDOWS KITS\10\INCLUDE\10.0.17134.0\UCRT\CORECRT_WDIRECT.H
D:\WINDOWS KITS\10\INCLUDE\10.0.17134.0\UCRT\CORECRT_WIO.H
D:\WINDOWS KITS\10\INCLUDE\10.0.17134.0\UCRT\CORECRT_SHARE.H
D:\WINDOWS KITS\10\INCLUDE\10.0.17134.0\UCRT\CORECRT_WPROCESS.H
D:\WINDOWS KITS\10\INCLUDE\10.0.17134.0\UCRT\CORECRT_WTIME.H
D:\WINDOWS KITS\10\INCLUDE\10.0.17134.0\UCRT\SYS\STAT.H
D:\WINDOWS KITS\10\INCLUDE\10.0.17134.0\UCRT\SYS\TYPES.H
D:\PROGRAM FILES\MICROSOFT VISUAL STUDIO\2017\COMMUNITY\VC\TOOLS\MSVC\14.15.26726\INCLUDE\NEW
D:\PROGRAM FILES\MICROSOFT VISUAL STUDIO\2017\COMMUNITY\VC\TOOLS\MSVC\14.15.26726\INCLUDE\XUTILITY
D:\PROGRAM FILES\MICROSOFT VISUAL STUDIO\2017\COMMUNITY\VC\TOOLS\MSVC\14.15.26726\INCLUDE\UTILITY
D:\PROGRAM FILES\MICROSOFT VISUAL STUDIO\2017\COMMUNITY\VC\TOOLS\MSVC\14.15.26726\INCLUDE\IOSFWD
D:\PROGRAM FILES\MICROSOFT VISUAL STUDIO\2017\COMMUNITY\VC\TOOLS\MSVC\14.15.26726\INCLUDE\XATOMIC0.H
D:\PROGRAM FILES\MICROSOFT VISUAL STUDIO\2017\COMMUNITY\VC\TOOLS\MSVC\14.15.26726\INCLUDE\INTRIN0.H
D:\PROGRAM FILES\MICROSOFT VISUAL STUDIO\2017\COMMUNITY\VC\TOOLS\MSVC\14.15.26726\INCLUDE\TYPEINFO
D:\PROGRAM FILES\MICROSOFT VISUAL STUDIO\2017\COMMUNITY\VC\TOOLS\MSVC\14.15.26726\INCLUDE\VCRUNTIME_TYPEINFO.H
D:\PROGRAM FILES\MICROSOFT VISUAL STUDIO\2017\COMMUNITY\VC\TOOLS\MSVC\14.15.26726\INCLUDE\XLOCINFO
D:\PROGRAM FILES\MICROSOFT VISUAL STUDIO\2017\COMMUNITY\VC\TOOLS\MSVC\14.15.26726\INCLUDE\XLOCINFO.H
D:\WINDOWS KITS\10\INCLUDE\10.0.17134.0\UCRT\CTYPE.H
D:\WINDOWS KITS\10\INCLUDE\10.0.17134.0\UCRT\LOCALE.H
D:\PROGRAM FILES\MICROSOFT VISUAL STUDIO\2017\COMMUNITY\VC\TOOLS\MSVC\14.15.26726\INCLUDE\MEMORY
D:\PROGRAM FILES\MICROSOFT VISUAL STUDIO\2017\COMMUNITY\VC\TOOLS\MSVC\14.15.26726\INCLUDE\XMEMORY
D:\PROGRAM FILES\MICROSOFT VISUAL STUDIO\2017\COMMUNITY\VC\TOOLS\MSVC\14.15.26726\INCLUDE\XFACET
D:\PROGRAM FILES\MICROSOFT VISUAL STUDIO\2017\COMMUNITY\VC\TOOLS\MSVC\14.15.26726\INCLUDE\SYSTEM_ERROR
D:\PROGRAM FILES\MICROSOFT VISUAL STUDIO\2017\COMMUNITY\VC\TOOLS\MSVC\14.15.26726\INCLUDE\CERRNO
D:\PROGRAM FILES\MICROSOFT VISUAL STUDIO\2017\COMMUNITY\VC\TOOLS\MSVC\14.15.26726\INCLUDE\XCALL_ONCE.H
D:\PROGRAM FILES\MICROSOFT VISUAL STUDIO\2017\COMMUNITY\VC\TOOLS\MSVC\14.15.26726\INCLUDE\XERRC.H
D:\WINDOWS KITS\10\INCLUDE\10.0.17134.0\UCRT\SHARE.H
